<?xml version="1.0" encoding="UTF-8"?>
<svg version="1.1" id="Capa_1" xmlns="http://www.w3.org/2000/svg" xmlns:xlink="http://www.w3.org/1999/xlink" x="0px" y="0px"
     viewBox="0 0 512 512" style="enable-background:new 0 0 512 512;" xml:space="preserve">
   <path
      d="m 257.792,368.091 c 2.681,-11.221 8.027,-21.841 15.439,-30.718 L 390.038,199.159 V 120 h -105 c -8.291,0 -15,-6.709 -15,-15 V 0 h -225 c -24.814,0 -45,20.186 -45,45 v 422 c 0,24.814 20.186,45 45,45 h 300 c 24.814,0 45,-20.186 45,-45 v -35.459 l -1.948,2.305 c -7.368,8.775 -16.875,15.85 -27.466,20.465 l -55.107,23.892 c -15.532,6.707 -33.511,4.331 -46.816,-6.812 -13.14,-11.03 -18.838,-28.242 -14.854,-44.941 z M 75.038,90 h 150 c 8.291,0 15,6.709 15,15 0,8.291 -6.709,15 -15,15 h -150 c -8.291,0 -15,-6.709 -15,-15 0,-8.291 6.709,-15 15,-15 z m 0,91 h 240 c 8.291,0 15,6.709 15,15 0,8.291 -6.709,15 -15,15 h -240 c -8.291,0 -15,-6.709 -15,-15 0,-8.291 6.709,-15 15,-15 z m 120,210 h -120 c -8.291,0 -15,-6.709 -15,-15 0,-8.291 6.709,-15 15,-15 h 120 c 8.291,0 15,6.709 15,15 0,8.291 -6.709,15 -15,15 z m -120,-90 c -8.291,0 -15,-6.709 -15,-15 0,-8.291 6.709,-15 15,-15 h 180 c 8.291,0 15,6.709 15,15 0,8.291 -6.709,15 -15,15 z M 376.02,66.504 319.038,12.363 C 313.651,7.256 307.024,4.248 300.039,2.294 V 90 h 89.052 C 387.23,81.09 382.69,72.836 376.02,66.504 Z m 13.663,318.983 82.918,-98.121 -68.945,-57.849 -82.923,98.114 z m -88.308,-34.953 -5.131,6.072 c -4.453,5.332 -7.661,11.704 -9.272,18.457 l -13.945,58.359 c -1.318,5.522 0.601,11.323 4.951,14.971 4.234,3.558 10.206,4.591 15.601,2.285 l 55.063,-23.877 c 6.372,-2.769 12.085,-7.031 16.538,-12.319 l 5.149,-6.092 z M 496.093,189.613 c -18.643,-15.674 -47.168,-13.807 -63.354,5.493 l -9.727,11.508 68.945,57.849 9.288,-11.466 c 15.975,-19 13.954,-47.376 -5.152,-63.384 z"
   id="path34" />
</svg>
